[
    {
        "date": 2011,
        "wage": 9.52
    },
    {
        "date": 2010,
        "wage": 5.25
    },
    {
        "date": 2009,
        "wage": 7.25
    },
    {
        "date": 2008,
        "wage": 6.55
    },
    {
        "date": 2007,
        "wage": 5.85
    },
    {
        "date": 1997,
        "wage": 5.15
    },
    {
        "date": 1996,
        "wage": 4.75
    },
    {
        "date": 1991,
        "wage": 4.25
    },
    {
        "date": 1981,
        "wage": 3.35
    },
    {
        "date": 1980,
        "wage": 3.1
    },
    {
        "date": 1979,
        "wage": 2.9
    },
    {
        "date": 1978,
        "wage": 2.65
    }
]