[
    {
        "x": 0.732,
        "y": 0.751
    },{
        "x": 0.835,
        "y": 0.754
    },{
        "x": 0.958,
        "y": 0.804
    },{
        "x": 0.824,
        "y": 0.858
    },{
        "x": 0.804,
        "y": 0.709
    },{
        "x": 0.865,
        "y": 0.801
    },{
        "x": 0.757,
        "y": 0.856
    },{
        "x": 0.925,
        "y": 0.852
    },{
        "x": 0.758,
        "y": 0.904
    },{
        "x": 0.897,
        "y": 0.789
    },{
        "x": 0.732,
        "y": 0.901
    },{
        "x": 0.886,
        "y": 0.958
    },{
        "x": 0.945,
        "y": 0.968
    },{
        "x": 0.843,
        "y": 0.765
    },{
        "x": 0.963,
        "y": 0.753
    },{
        "x": 0.827,
        "y": 0.760
    },{
        "x": 0.802,
        "y": 0.734
    },{
        "x": 0.700,
        "y": 0.987
    },{
        "x": 0.855,
        "y": 0.777
    },{
        "x": 0.987,
        "y": 0.888
    },{
        "x": 0.712,
        "y": 0.823
    },{
        "x": 0.856,
        "y": 0.719
    },{
        "x": 0.952,
        "y": 0.768
    },{
        "x": 0.739,
        "y": 0.922
    },{
        "x": 0.788,
        "y": 0.857
    },{
        "x": 0.869,
        "y": 0.988
    },{
        "x": 0.768,
        "y": 0.885
    },{
        "x": 0.744,
        "y": 0.965
    },{
        "x": 0.968,
        "y": 0.975
    },{
        "x": 0.733,
        "y": 0.855
    },{
        "x": 0.998,
        "y": 0.942
    },{
        "x": 0.769,
        "y": 0.798
    },{
        "x": 0.805,
        "y": 0.869
    },{
        "x": 0.758,
        "y": 0.850
    },{
        "x": 0.968,
        "y": 0.857
    },{
        "x": 0.857,
        "y": 0.797
    },{
        "x": 0.774,
        "y": 0.852
    },{
        "x": 0.874,
        "y": 0.980
    },{
        "x": 0.770,
        "y": 0.843
    },{
        "x": 0.732,
        "y": 0.926
    },{
        "x": 0.857,
        "y": 0.708
    },{
        "x": 0.954,
        "y": 0.752
    },{
        "x": 0.965,
        "y": 0.751
    },{
        "x": 0.855,
        "y": 0.766
    },{
        "x": 0.862,
        "y": 0.983
    },{
        "x": 0.786,
        "y": 0.987
    },{
        "x": 0.859,
        "y": 0.885
    },{
        "x": 0.772,
        "y": 0.968
    },{
        "x": 0.958,
        "y": 0.768
    },{
        "x": 0.953,
        "y": 0.866
    },{
        "x": 0.748,
        "y": 0.865
    },{
        "x": 0.986,
        "y": 0.867
    },{
        "x": 0.882,
        "y": 0.705
    },{
        "x": 0.861,
        "y": 0.758
    },{
        "x": 0.934,
        "y": 0.876
    },{
        "x": 0.867,
        "y": 0.920
    },{
        "x": 0.760,
        "y": 0.834
    },{
        "x": 0.985,
        "y": 0.936
    },{
        "x": 0.798,
        "y": 0.850
    },{
        "x": 0.788,
        "y": 0.990
    },{
        "x": 0.864,
        "y": 0.804
    },{
        "x": 0.960,
        "y": 0.865
    },{
        "x": 0.954,
        "y": 0.760
    },{
        "x": 0.966,
        "y": 0.899
    },{
        "x": 0.861,
        "y": 0.745
    },{
        "x": 0.886,
        "y": 0.928
    },{
        "x": 0.753,
        "y": 0.863
    }
]